<?xml version="1.0" encoding="utf-8"?>
<!-- Generated by IcoMoon.io -->
<!DOCTYPE svg PUBLIC "-//W3C//DTD SVG 1.1//EN" "http://www.w3.org/Graphics/SVG/1.1/DTD/svg11.dtd">
<svg version="1.1" xmlns="http://www.w3.org/2000/svg" xmlns:xlink="http://www.w3.org/1999/xlink" width="32" height="32" viewBox="0 0 32 32">
<g id="icomoon-ignore">
</g>
<path d="M5.862 13.999l10.138 10.001 9.695-10-19.833-0.001zM12.003-0l7.997 0.001-0.001 13.104-7.997-0.001 0.001-13.104zM31.998 28l0.002-9.996-7.063-0.004-8.939 8.945-8.921-8.945-7.078 0v10l31.998 0zM0 30.001h32l0 1.999h-32l-0-1.999z" fill="#000000"></path>
</svg>
