<?xml version="1.0" encoding="utf-8"?>
<!-- Generated by IcoMoon.io -->
<!DOCTYPE svg PUBLIC "-//W3C//DTD SVG 1.1//EN" "http://www.w3.org/Graphics/SVG/1.1/DTD/svg11.dtd">
<svg version="1.1" xmlns="http://www.w3.org/2000/svg" xmlns:xlink="http://www.w3.org/1999/xlink" width="32" height="32" viewBox="0 0 32 32">
<g id="icomoon-ignore">
</g>
<path d="M11.74 15.182l-5.719 5.765v-11.165l5.719 5.4z" fill="#000000"></path>
<path d="M16.074 15.365l-7.782-7.388h15.563l-7.78 7.388z" fill="#000000"></path>
<path d="M18.244 16.175l5.72 5.854h-15.737l5.745-5.798 2.102 2.026 2.169-2.082z" fill="#000000"></path>
<path d="M20.347 15.13l5.657-5.345v11.134l-5.657-5.789z" fill="#000000"></path>
<path d="M0 32h32v-32h-32v32zM28 24h-24v-17.969h24v17.969z" fill="#000000"></path>
</svg>
